<?xml version="1.0" encoding="UTF-8" standalone="no"?>
<svg width="18px" height="18px" viewBox="0 0 18 18" version="1.1" xmlns="http://www.w3.org/2000/svg" xmlns:xlink="http://www.w3.org/1999/xlink">
    <!-- Generator: Sketch 3.8.2 (29753) - http://www.bohemiancoding.com/sketch -->
    <title>Group 18</title>
    <desc>Created with Sketch.</desc>
    <defs></defs>
    <g id="Blue-theme" stroke="none" stroke-width="1" fill="none" fill-rule="evenodd">
        <g id="Settings-sidebar-–-blue-theme-–-with-fade" transform="translate(-22.000000, -136.000000)" stroke-width="2" stroke="currentColor">
            <g id="Group-2" transform="translate(23.000000, 135.000000)">
                <g id="Group-18" transform="translate(0.000000, 2.000000)">
                    <g id="Design-task">
                        <g id="Group-3">
                            <rect id="Rectangle-36" x="0" y="0" width="16" height="16" rx="8"></rect>
                            <g id="Group-19-Copy-2" transform="translate(4.000000, 6.000000)" stroke-linecap="round" stroke-linejoin="round">
                                <g id="Group-29">
                                    <g id="Group-10">
                                        <g id="Group-13">
                                            <g id="Group-35">
                                                <polyline id="Path-217" points="1.77003568 0 0 1.71597919 1.66038021 3.32565177"></polyline>
                                                <polyline id="Path-217-Copy" transform="translate(6.885018, 1.662826) rotate(-180.000000) translate(-6.885018, -1.662826) " points="7.77003568 -6.75015599e-14 6 1.71597919 7.66038021 3.32565177"></polyline>
                                            </g>
                                        </g>
                                    </g>
                                </g>
                            </g>
                        </g>
                    </g>
                </g>
            </g>
        </g>
    </g>
</svg>
