<?xml version="1.0" encoding="UTF-8" standalone="no"?>
<svg width="20px" height="20px" viewBox="0 0 20 20" version="1.1" xmlns="http://www.w3.org/2000/svg" xmlns:xlink="http://www.w3.org/1999/xlink">
    <!-- Generator: Sketch 40.1 (33804) - http://www.bohemiancoding.com/sketch -->
    <title>Right chevron</title>
    <desc>Created with Sketch.</desc>
    <defs></defs>
    <g id="Page-1" stroke="none" stroke-width="1" fill="none" fill-rule="evenodd">
        <g id="Right-chevron" fill="currentColor">
            <path d="M5.34922676,8.75927473 L8.84922676,11.7592747 C9.22371649,12.0802659 9.77631977,12.0802659 10.1508095,11.7592747 L13.6508095,8.75927473 C14.0701353,8.39985258 14.1186969,7.7685526 13.7592747,7.34922676 C13.3998526,6.92990091 12.7685526,6.88133938 12.3492268,7.24076153 L8.84922676,10.2407615 L10.1508095,10.2407615 L6.6508095,7.24076153 C6.23148366,6.88133938 5.60018368,6.92990091 5.24076153,7.34922676 C4.88133938,7.7685526 4.92990091,8.39985258 5.34922676,8.75927473 L5.34922676,8.75927473 Z" id="Path-112-Copy-10" transform="translate(9.500018, 9.500009) rotate(-90.000000) translate(-9.500018, -9.500009) "></path>
        </g>
    </g>
</svg>
