<?xml version="1.0" encoding="UTF-8" standalone="no"?>
<svg width="12px" height="12px" viewBox="0 0 12 12" version="1.1" xmlns="http://www.w3.org/2000/svg" xmlns:xlink="http://www.w3.org/1999/xlink">
    <!-- Generator: Sketch 40.1 (33804) - http://www.bohemiancoding.com/sketch -->
    <title>Success</title>
    <desc>Created with Sketch.</desc>
    <defs></defs>
    <g id="Page-1" stroke="none" stroke-width="1" fill="currentColor" fill-rule="evenodd">
        <g id="Success">
            <circle id="Oval" fill="inherit" cx="6" cy="6" r="6"></circle>
            <path d="M9.2865,4.812 L5.46825,8.63025 C5.32125,8.7765 5.13,8.85 4.938,8.85 C4.746,8.85 4.554,8.7765 4.40775,8.63025 L2.7105,6.933 C2.41725,6.6405 2.41725,6.16575 2.7105,5.8725 C3.00375,5.57925 3.47775,5.57925 3.771,5.8725 L4.938,7.0395 L8.226,3.7515 C8.51925,3.45825 8.99325,3.45825 9.2865,3.7515 C9.57975,4.04475 9.57975,4.51875 9.2865,4.812" id="Path" fill="white"></path>
        </g>
    </g>
</svg>
